Assumptions
…
No omitted variables

Homoscedasticity

Independence among the residuals

Normally distributed residuals

a_data <- read.csv("https://raw.githubusercontent.com/uopsych/psy612/master/data/anxiety.csv")
library(broom)
model.1 <- lm(Anxiety ~ Support, a_data)
aug_1<- augment(model.1)
aug_1

# A tibble: 112 × 8
   Anxiety Support .fitted .resid    .hat .sigma .cooksd .std.resid
     <dbl>   <dbl>   <dbl>  <dbl>   <dbl>  <dbl>   <dbl>      <dbl>
 1   0.698   17.0     4.20  -3.50 0.0650    2.08 0.103       -1.72 
 2   3.03    14.4     5.29  -2.26 0.0353    2.10 0.0220      -1.10 
 3   3.30     8.85    7.60  -4.30 0.00896   2.07 0.0191      -2.05 
 4   3.41     4.1     9.59  -6.17 0.0258    2.02 0.117       -2.98 
 5   3.59     6.43    8.61  -5.03 0.0130    2.06 0.0381      -2.41 
 6   4.22    11.4     6.54  -2.31 0.0150    2.10 0.00935     -1.11 
 7   4.36     6.79    8.46  -4.10 0.0118    2.07 0.0229      -1.96 
 8   5.08    11.2     6.62  -1.54 0.0141    2.11 0.00390     -0.739
 9   5.38     5.33    9.07  -3.69 0.0179    2.08 0.0286      -1.77 
10   5.59     8.91    7.58  -1.99 0.00898   2.10 0.00409     -0.950
# … with 102 more rows
…
